JobOptionsSvc        INFO # =======> /builds/gaudi/Gaudi/GaudiExamples/options/Services.opts
JobOptionsSvc        INFO # (12,1): AuditorSvc.Auditors = ["ChronoAuditor"]
JobOptionsSvc        INFO # =======> /builds/gaudi/Gaudi/GaudiExamples/options/Common.opts
JobOptionsSvc        INFO # (9,1): ApplicationMgr.StatusCodeCheck = 1
JobOptionsSvc        INFO # =======> /builds/gaudi/Gaudi/GaudiExamples/options/GaudiCommonTests.opts
JobOptionsSvc        INFO # (9,1): EventDataSvc.ForceLeaves = 1
JobOptionsSvc        INFO # (10,1): EventDataSvc.RootCLID = 1
JobOptionsSvc        INFO # (17,1): MessageSvc.OutputLevel = 3
JobOptionsSvc        INFO # (19,1): ApplicationMgr.TopAlg += ["GaudiCommonTests/Test1"]
JobOptionsSvc        INFO # (20,1): Test1.OutputLevel = 2
JobOptionsSvc        INFO # (21,1): Test1.RootInTES = ""
JobOptionsSvc        INFO # (23,1): ApplicationMgr.TopAlg += ["GaudiCommonTests/Test2"]
JobOptionsSvc        INFO # (24,1): Test2.OutputLevel = 2
JobOptionsSvc        INFO # (25,1): Test2.RootInTES = "microDST"
JobOptionsSvc        INFO # (27,1): ApplicationMgr.TopAlg += ["GaudiSequencer/Seq1"]
JobOptionsSvc        INFO # (28,1): Seq1.Members = ["GaudiCommonTests/Test3"]
JobOptionsSvc        INFO # (29,1): Test3.OutputLevel = 2
JobOptionsSvc        INFO # (30,1): Seq1.RootInTES = ""
JobOptionsSvc        INFO # (32,1): ApplicationMgr.TopAlg += ["GaudiSequencer/Seq2"]
JobOptionsSvc        INFO # (33,1): Seq2.Members = ["GaudiCommonTests/Test4"]
JobOptionsSvc        INFO # (34,1): Test4.OutputLevel = 2
JobOptionsSvc        INFO # (35,1): Seq2.RootInTES = "microDST"
JobOptionsSvc        INFO # (40,1): ApplicationMgr.EvtMax = 1
JobOptionsSvc        INFO # (41,1): ApplicationMgr.EvtSel = "NONE"
JobOptionsSvc        INFO # (42,1): ApplicationMgr.HistogramPersistency = "NONE"
JobOptionsSvc        INFO Job options successfully read in from /builds/gaudi/Gaudi/GaudiExamples/options/GaudiCommonTests.opts
ApplicationMgr    SUCCESS
====================================================================================================================================
                                                   Welcome to ApplicationMgr (GaudiCoreSvc v34r1)
                                          running on runner-7f-zqs17-project-38-concurrent-0 on Mon Oct 19 16:16:42 2020
====================================================================================================================================
ApplicationMgr       INFO Application Manager Configured successfully
StatusCodeSvc        INFO initialize
Test1               DEBUG Property update for OutputLevel : new value = 2
Test1               DEBUG Initialize base class GaudiCommon<Algorithm>
Test1               DEBUG could not locate CounterSummarySvc, no counter summary will be made
Test1               DEBUG List of ALL properties of GaudiCommonTests/Test1  #properties = 28
Test1               DEBUG Property ['Name': Value] =  'RequireObjects':[  ]
Test1               DEBUG Property ['Name': Value] =  'VetoObjects':[  ]
Test1               DEBUG Property ['Name': Value] =  'CounterList':[ '.*' ]
Test1               DEBUG Property ['Name': Value] =  'Context':''
Test1               DEBUG Property ['Name': Value] =  'TypePrint':True
Test1               DEBUG Property ['Name': Value] =  'PropertiesPrint':False
Test1               DEBUG Property ['Name': Value] =  'ErrorsPrint':True
Test1               DEBUG Property ['Name': Value] =  'RootInTES':''
Test1               DEBUG Property ['Name': Value] =  'FilterCircularDependencies':True
Test1               DEBUG Property ['Name': Value] =  'Blocking':False
Test1               DEBUG Property ['Name': Value] =  'NeededResources':[  ]
Test1               DEBUG Property ['Name': Value] =  'Cardinality':1
Test1               DEBUG Property ['Name': Value] =  'RegisterForContextService':True
Test1               DEBUG Property ['Name': Value] =  'MonitorService':'MonitorSvc'
Test1               DEBUG Property ['Name': Value] =  'Timeline':False
Test1               DEBUG Property ['Name': Value] =  'AuditStop':False
Test1               DEBUG Property ['Name': Value] =  'AuditStart':False
Test1               DEBUG Property ['Name': Value] =  'AuditFinalize':False
Test1               DEBUG Property ['Name': Value] =  'AuditExecute':False
Test1               DEBUG Property ['Name': Value] =  'AuditRestart':False
Test1               DEBUG Property ['Name': Value] =  'AuditReinitialize':False
Test1               DEBUG Property ['Name': Value] =  'AuditInitialize':False
Test1               DEBUG Property ['Name': Value] =  'AuditAlgorithms':False
Test1               DEBUG Property ['Name': Value] =  'ErrorMax':1
Test1               DEBUG Property ['Name': Value] =  'Enable':True
Test1               DEBUG Property ['Name': Value] =  'OutputLevel':2
Test1               DEBUG Property ['Name': Value] =  'ExtraOutputs':set()
Test1               DEBUG Property ['Name': Value] =  'ExtraInputs':set()
Test1               DEBUG input handles: 0
Test1               DEBUG output handles: 0
Test1               DEBUG Data Deps for Test1
Test2               DEBUG Property update for OutputLevel : new value = 2
Test2               DEBUG Initialize base class GaudiCommon<Algorithm>
Test2               DEBUG could not locate CounterSummarySvc, no counter summary will be made
Test2               DEBUG List of ALL properties of GaudiCommonTests/Test2  #properties = 28
Test2               DEBUG Property ['Name': Value] =  'RequireObjects':[  ]
Test2               DEBUG Property ['Name': Value] =  'VetoObjects':[  ]
Test2               DEBUG Property ['Name': Value] =  'CounterList':[ '.*' ]
Test2               DEBUG Property ['Name': Value] =  'Context':''
Test2               DEBUG Property ['Name': Value] =  'TypePrint':True
Test2               DEBUG Property ['Name': Value] =  'PropertiesPrint':False
Test2               DEBUG Property ['Name': Value] =  'ErrorsPrint':True
Test2               DEBUG Property ['Name': Value] =  'RootInTES':'microDST/'
Test2               DEBUG Property ['Name': Value] =  'FilterCircularDependencies':True
Test2               DEBUG Property ['Name': Value] =  'Blocking':False
Test2               DEBUG Property ['Name': Value] =  'NeededResources':[  ]
Test2               DEBUG Property ['Name': Value] =  'Cardinality':1
Test2               DEBUG Property ['Name': Value] =  'RegisterForContextService':True
Test2               DEBUG Property ['Name': Value] =  'MonitorService':'MonitorSvc'
Test2               DEBUG Property ['Name': Value] =  'Timeline':False
Test2               DEBUG Property ['Name': Value] =  'AuditStop':False
Test2               DEBUG Property ['Name': Value] =  'AuditStart':False
Test2               DEBUG Property ['Name': Value] =  'AuditFinalize':False
Test2               DEBUG Property ['Name': Value] =  'AuditExecute':False
Test2               DEBUG Property ['Name': Value] =  'AuditRestart':False
Test2               DEBUG Property ['Name': Value] =  'AuditReinitialize':False
Test2               DEBUG Property ['Name': Value] =  'AuditInitialize':False
Test2               DEBUG Property ['Name': Value] =  'AuditAlgorithms':False
Test2               DEBUG Property ['Name': Value] =  'ErrorMax':1
Test2               DEBUG Property ['Name': Value] =  'Enable':True
Test2               DEBUG Property ['Name': Value] =  'OutputLevel':2
Test2               DEBUG Property ['Name': Value] =  'ExtraOutputs':set()
Test2               DEBUG Property ['Name': Value] =  'ExtraInputs':set()
Test2               DEBUG input handles: 0
Test2               DEBUG output handles: 0
Test2               DEBUG Data Deps for Test2
Seq1                 INFO Member list: GaudiCommonTests/Test3
RndmGenSvc.Engine    INFO Generator engine type:CLHEP::RanluxEngine
RndmGenSvc.Engine    INFO Current Seed:1234567 Luxury:3
RndmGenSvc           INFO Using Random engine:HepRndm::Engine<CLHEP::RanluxEngine>
ToolSvc.Sequenc...   INFO This machine has a speed about   3.03 times the speed of a 2.8 GHz Xeon.
Test3               DEBUG Property update for OutputLevel : new value = 2
Test3               DEBUG Initialize base class GaudiCommon<Algorithm>
Test3               DEBUG could not locate CounterSummarySvc, no counter summary will be made
Test3               DEBUG List of ALL properties of GaudiCommonTests/Test3  #properties = 28
Test3               DEBUG Property ['Name': Value] =  'RequireObjects':[  ]
Test3               DEBUG Property ['Name': Value] =  'VetoObjects':[  ]
Test3               DEBUG Property ['Name': Value] =  'CounterList':[ '.*' ]
Test3               DEBUG Property ['Name': Value] =  'Context':''
Test3               DEBUG Property ['Name': Value] =  'TypePrint':True
Test3               DEBUG Property ['Name': Value] =  'PropertiesPrint':False
Test3               DEBUG Property ['Name': Value] =  'ErrorsPrint':True
Test3               DEBUG Property ['Name': Value] =  'RootInTES':''
Test3               DEBUG Property ['Name': Value] =  'FilterCircularDependencies':True
Test3               DEBUG Property ['Name': Value] =  'Blocking':False
Test3               DEBUG Property ['Name': Value] =  'NeededResources':[  ]
Test3               DEBUG Property ['Name': Value] =  'Cardinality':1
Test3               DEBUG Property ['Name': Value] =  'RegisterForContextService':True
Test3               DEBUG Property ['Name': Value] =  'MonitorService':'MonitorSvc'
Test3               DEBUG Property ['Name': Value] =  'Timeline':False
Test3               DEBUG Property ['Name': Value] =  'AuditStop':False
Test3               DEBUG Property ['Name': Value] =  'AuditStart':False
Test3               DEBUG Property ['Name': Value] =  'AuditFinalize':False
Test3               DEBUG Property ['Name': Value] =  'AuditExecute':False
Test3               DEBUG Property ['Name': Value] =  'AuditRestart':False
Test3               DEBUG Property ['Name': Value] =  'AuditReinitialize':False
Test3               DEBUG Property ['Name': Value] =  'AuditInitialize':False
Test3               DEBUG Property ['Name': Value] =  'AuditAlgorithms':False
Test3               DEBUG Property ['Name': Value] =  'ErrorMax':1
Test3               DEBUG Property ['Name': Value] =  'Enable':True
Test3               DEBUG Property ['Name': Value] =  'OutputLevel':2
Test3               DEBUG Property ['Name': Value] =  'ExtraOutputs':set()
Test3               DEBUG Property ['Name': Value] =  'ExtraInputs':set()
Test3               DEBUG input handles: 0
Test3               DEBUG output handles: 0
Test3               DEBUG Data Deps for Test3
Seq2                 INFO Member list: GaudiCommonTests/Test4, with rootInTES 'microDST/'
Test4               DEBUG Property update for OutputLevel : new value = 2
Test4               DEBUG Initialize base class GaudiCommon<Algorithm>
Test4               DEBUG could not locate CounterSummarySvc, no counter summary will be made
Test4               DEBUG List of ALL properties of GaudiCommonTests/Test4  #properties = 28
Test4               DEBUG Property ['Name': Value] =  'RequireObjects':[  ]
Test4               DEBUG Property ['Name': Value] =  'VetoObjects':[  ]
Test4               DEBUG Property ['Name': Value] =  'CounterList':[ '.*' ]
Test4               DEBUG Property ['Name': Value] =  'Context':''
Test4               DEBUG Property ['Name': Value] =  'TypePrint':True
Test4               DEBUG Property ['Name': Value] =  'PropertiesPrint':False
Test4               DEBUG Property ['Name': Value] =  'ErrorsPrint':True
Test4               DEBUG Property ['Name': Value] =  'RootInTES':'microDST/'
Test4               DEBUG Property ['Name': Value] =  'FilterCircularDependencies':True
Test4               DEBUG Property ['Name': Value] =  'Blocking':False
Test4               DEBUG Property ['Name': Value] =  'NeededResources':[  ]
Test4               DEBUG Property ['Name': Value] =  'Cardinality':1
Test4               DEBUG Property ['Name': Value] =  'RegisterForContextService':True
Test4               DEBUG Property ['Name': Value] =  'MonitorService':'MonitorSvc'
Test4               DEBUG Property ['Name': Value] =  'Timeline':False
Test4               DEBUG Property ['Name': Value] =  'AuditStop':False
Test4               DEBUG Property ['Name': Value] =  'AuditStart':False
Test4               DEBUG Property ['Name': Value] =  'AuditFinalize':False
Test4               DEBUG Property ['Name': Value] =  'AuditExecute':False
Test4               DEBUG Property ['Name': Value] =  'AuditRestart':False
Test4               DEBUG Property ['Name': Value] =  'AuditReinitialize':False
Test4               DEBUG Property ['Name': Value] =  'AuditInitialize':False
Test4               DEBUG Property ['Name': Value] =  'AuditAlgorithms':False
Test4               DEBUG Property ['Name': Value] =  'ErrorMax':1
Test4               DEBUG Property ['Name': Value] =  'Enable':True
Test4               DEBUG Property ['Name': Value] =  'OutputLevel':2
Test4               DEBUG Property ['Name': Value] =  'ExtraOutputs':set()
Test4               DEBUG Property ['Name': Value] =  'ExtraInputs':set()
Test4               DEBUG input handles: 0
Test4               DEBUG output handles: 0
Test4               DEBUG Data Deps for Test4
EventLoopMgr      WARNING Unable to locate service "EventSelector"
EventLoopMgr      WARNING No events will be processed from external input.
ApplicationMgr       INFO Application Manager Initialized successfully
ApplicationMgr       INFO Application Manager Started successfully
Test1                INFO Execute
Test1               DEBUG GaudiCommonTests:: The object of type 'KeyedContainer<Gaudi::Examples::MyTrack,Containers::KeyedObjectManager<Containers::hashmap> >' is registered in TS at address '/Event/Test1/Tracks1'
Test1               DEBUG GaudiCommonTests:: The object of type 'KeyedContainer<Gaudi::Examples::MyTrack,Containers::KeyedObjectManager<Containers::hashmap> >' is registered in TS at address '/Event/Test1/Tracks2'
Test1               DEBUG GaudiCommonTests:: The object of type 'KeyedContainer<Gaudi::Examples::MyTrack,Containers::KeyedObjectManager<Containers::hashmap> >' is registered in TS at address 'Test1/Tracks3'
Test1               DEBUG GaudiCommonTests:: The object of type 'KeyedContainer<Gaudi::Examples::MyTrack,Containers::KeyedObjectManager<Containers::hashmap> >' is registered in TS at address 'Test1/Tracks4'
Test1               DEBUG The object of type 'KeyedContainer<Gaudi::Examples::MyTrack,Containers::KeyedObjectManager<Containers::hashmap> >*' has been retrieved from TS at address '/Event/Test1/Tracks1'
Test1               DEBUG The object of type 'KeyedContainer<Gaudi::Examples::MyTrack,Containers::KeyedObjectManager<Containers::hashmap> >*' has been retrieved from TS at address '/Event/Test1/Tracks2'
Test1               DEBUG The object of type 'KeyedContainer<Gaudi::Examples::MyTrack,Containers::KeyedObjectManager<Containers::hashmap> >*' has been retrieved from TS at address 'Test1/Tracks3'
Test1               DEBUG The object of type 'KeyedContainer<Gaudi::Examples::MyTrack,Containers::KeyedObjectManager<Containers::hashmap> >*' has been retrieved from TS at address 'Test1/Tracks4'
Test1               DEBUG The object of type 'DataObject*' has been retrieved from TS at address '/Event'
Test1               DEBUG The object of type 'DataObject*' has been retrieved from TS at address '/Event'
Test1               DEBUG The object of type 'DataObject*' has been retrieved from TS at address ''
Test1               DEBUG The object of type 'DataObject*' has been retrieved from TS at address ''
Test1                INFO Loaded Objects:
Test1                INFO /Event/Test1/Tracks1
Test1                INFO /Event/Test1/Tracks2
Test1                INFO /Event/Test1/Tracks3
Test1                INFO /Event/Test1/Tracks4
Test1                INFO /Event
Test1                INFO /Event
Test1                INFO /Event
Test1                INFO /Event
Test1               DEBUG The object of type 'KeyedContainer<Gaudi::Examples::MyTrack,Containers::KeyedObjectManager<Containers::hashmap> >*' has been retrieved from TS at address '/Event/Test1/Tracks1'
Test1               DEBUG The object of type 'KeyedContainer<Gaudi::Examples::MyTrack,Containers::KeyedObjectManager<Containers::hashmap> >*' could not be retrieved from TS at address 'Nowhere/To/Be/Found'
Test2                INFO Execute
Test2               DEBUG GaudiCommonTests:: The object of type 'KeyedContainer<Gaudi::Examples::MyTrack,Containers::KeyedObjectManager<Containers::hashmap> >' is registered in TS at address 'microDST/Test2/Tracks1'
Test2               DEBUG GaudiCommonTests:: The object of type 'KeyedContainer<Gaudi::Examples::MyTrack,Containers::KeyedObjectManager<Containers::hashmap> >' is registered in TS at address '/Event/Test2/Tracks2'
Test2               DEBUG GaudiCommonTests:: The object of type 'KeyedContainer<Gaudi::Examples::MyTrack,Containers::KeyedObjectManager<Containers::hashmap> >' is registered in TS at address 'microDST/Test2/Tracks3'
Test2               DEBUG GaudiCommonTests:: The object of type 'KeyedContainer<Gaudi::Examples::MyTrack,Containers::KeyedObjectManager<Containers::hashmap> >' is registered in TS at address 'Test2/Tracks4'
Test2               DEBUG The object of type 'KeyedContainer<Gaudi::Examples::MyTrack,Containers::KeyedObjectManager<Containers::hashmap> >*' has been retrieved from TS at address 'microDST/Test2/Tracks1'
Test2               DEBUG The object of type 'KeyedContainer<Gaudi::Examples::MyTrack,Containers::KeyedObjectManager<Containers::hashmap> >*' has been retrieved from TS at address '/Event/Test2/Tracks2'
Test2               DEBUG The object of type 'KeyedContainer<Gaudi::Examples::MyTrack,Containers::KeyedObjectManager<Containers::hashmap> >*' has been retrieved from TS at address 'microDST/Test2/Tracks3'
Test2               DEBUG The object of type 'KeyedContainer<Gaudi::Examples::MyTrack,Containers::KeyedObjectManager<Containers::hashmap> >*' has been retrieved from TS at address 'Test2/Tracks4'
Test2               DEBUG The object of type 'DataObject*' has been retrieved from TS at address 'microDST'
Test2               DEBUG The object of type 'DataObject*' has been retrieved from TS at address '/Event'
Test2               DEBUG The object of type 'DataObject*' has been retrieved from TS at address 'microDST'
Test2               DEBUG The object of type 'DataObject*' has been retrieved from TS at address ''
Test2                INFO Loaded Objects:
Test2                INFO /Event/microDST/Test2/Tracks1
Test2                INFO /Event/Test2/Tracks2
Test2                INFO /Event/microDST/Test2/Tracks3
Test2                INFO /Event/Test2/Tracks4
Test2                INFO /Event/microDST
Test2                INFO /Event
Test2                INFO /Event/microDST
Test2                INFO /Event
Test2               DEBUG The object of type 'KeyedContainer<Gaudi::Examples::MyTrack,Containers::KeyedObjectManager<Containers::hashmap> >*' has been retrieved from TS at address 'microDST/Test2/Tracks1'
Test2               DEBUG The object of type 'KeyedContainer<Gaudi::Examples::MyTrack,Containers::KeyedObjectManager<Containers::hashmap> >*' could not be retrieved from TS at address 'microDST/Nowhere/To/Be/Found'
Test3                INFO Execute
Test3               DEBUG GaudiCommonTests:: The object of type 'KeyedContainer<Gaudi::Examples::MyTrack,Containers::KeyedObjectManager<Containers::hashmap> >' is registered in TS at address '/Event/Test3/Tracks1'
Test3               DEBUG GaudiCommonTests:: The object of type 'KeyedContainer<Gaudi::Examples::MyTrack,Containers::KeyedObjectManager<Containers::hashmap> >' is registered in TS at address '/Event/Test3/Tracks2'
Test3               DEBUG GaudiCommonTests:: The object of type 'KeyedContainer<Gaudi::Examples::MyTrack,Containers::KeyedObjectManager<Containers::hashmap> >' is registered in TS at address 'Test3/Tracks3'
Test3               DEBUG GaudiCommonTests:: The object of type 'KeyedContainer<Gaudi::Examples::MyTrack,Containers::KeyedObjectManager<Containers::hashmap> >' is registered in TS at address 'Test3/Tracks4'
Test3               DEBUG The object of type 'KeyedContainer<Gaudi::Examples::MyTrack,Containers::KeyedObjectManager<Containers::hashmap> >*' has been retrieved from TS at address '/Event/Test3/Tracks1'
Test3               DEBUG The object of type 'KeyedContainer<Gaudi::Examples::MyTrack,Containers::KeyedObjectManager<Containers::hashmap> >*' has been retrieved from TS at address '/Event/Test3/Tracks2'
Test3               DEBUG The object of type 'KeyedContainer<Gaudi::Examples::MyTrack,Containers::KeyedObjectManager<Containers::hashmap> >*' has been retrieved from TS at address 'Test3/Tracks3'
Test3               DEBUG The object of type 'KeyedContainer<Gaudi::Examples::MyTrack,Containers::KeyedObjectManager<Containers::hashmap> >*' has been retrieved from TS at address 'Test3/Tracks4'
Test3               DEBUG The object of type 'DataObject*' has been retrieved from TS at address '/Event'
Test3               DEBUG The object of type 'DataObject*' has been retrieved from TS at address '/Event'
Test3               DEBUG The object of type 'DataObject*' has been retrieved from TS at address ''
Test3               DEBUG The object of type 'DataObject*' has been retrieved from TS at address ''
Test3                INFO Loaded Objects:
Test3                INFO /Event/Test3/Tracks1
Test3                INFO /Event/Test3/Tracks2
Test3                INFO /Event/Test3/Tracks3
Test3                INFO /Event/Test3/Tracks4
Test3                INFO /Event
Test3                INFO /Event
Test3                INFO /Event
Test3                INFO /Event
Test3               DEBUG The object of type 'KeyedContainer<Gaudi::Examples::MyTrack,Containers::KeyedObjectManager<Containers::hashmap> >*' has been retrieved from TS at address '/Event/Test3/Tracks1'
Test3               DEBUG The object of type 'KeyedContainer<Gaudi::Examples::MyTrack,Containers::KeyedObjectManager<Containers::hashmap> >*' could not be retrieved from TS at address 'Nowhere/To/Be/Found'
Test4                INFO Execute
Test4               DEBUG GaudiCommonTests:: The object of type 'KeyedContainer<Gaudi::Examples::MyTrack,Containers::KeyedObjectManager<Containers::hashmap> >' is registered in TS at address 'microDST/Test4/Tracks1'
Test4               DEBUG GaudiCommonTests:: The object of type 'KeyedContainer<Gaudi::Examples::MyTrack,Containers::KeyedObjectManager<Containers::hashmap> >' is registered in TS at address '/Event/Test4/Tracks2'
Test4               DEBUG GaudiCommonTests:: The object of type 'KeyedContainer<Gaudi::Examples::MyTrack,Containers::KeyedObjectManager<Containers::hashmap> >' is registered in TS at address 'microDST/Test4/Tracks3'
Test4               DEBUG GaudiCommonTests:: The object of type 'KeyedContainer<Gaudi::Examples::MyTrack,Containers::KeyedObjectManager<Containers::hashmap> >' is registered in TS at address 'Test4/Tracks4'
Test4               DEBUG The object of type 'KeyedContainer<Gaudi::Examples::MyTrack,Containers::KeyedObjectManager<Containers::hashmap> >*' has been retrieved from TS at address 'microDST/Test4/Tracks1'
Test4               DEBUG The object of type 'KeyedContainer<Gaudi::Examples::MyTrack,Containers::KeyedObjectManager<Containers::hashmap> >*' has been retrieved from TS at address '/Event/Test4/Tracks2'
Test4               DEBUG The object of type 'KeyedContainer<Gaudi::Examples::MyTrack,Containers::KeyedObjectManager<Containers::hashmap> >*' has been retrieved from TS at address 'microDST/Test4/Tracks3'
Test4               DEBUG The object of type 'KeyedContainer<Gaudi::Examples::MyTrack,Containers::KeyedObjectManager<Containers::hashmap> >*' has been retrieved from TS at address 'Test4/Tracks4'
Test4               DEBUG The object of type 'DataObject*' has been retrieved from TS at address 'microDST'
Test4               DEBUG The object of type 'DataObject*' has been retrieved from TS at address '/Event'
Test4               DEBUG The object of type 'DataObject*' has been retrieved from TS at address 'microDST'
Test4               DEBUG The object of type 'DataObject*' has been retrieved from TS at address ''
Test4                INFO Loaded Objects:
Test4                INFO /Event/microDST/Test4/Tracks1
Test4                INFO /Event/Test4/Tracks2
Test4                INFO /Event/microDST/Test4/Tracks3
Test4                INFO /Event/Test4/Tracks4
Test4                INFO /Event/microDST
Test4                INFO /Event
Test4                INFO /Event/microDST
Test4                INFO /Event
Test4               DEBUG The object of type 'KeyedContainer<Gaudi::Examples::MyTrack,Containers::KeyedObjectManager<Containers::hashmap> >*' has been retrieved from TS at address 'microDST/Test4/Tracks1'
Test4               DEBUG The object of type 'KeyedContainer<Gaudi::Examples::MyTrack,Containers::KeyedObjectManager<Containers::hashmap> >*' could not be retrieved from TS at address 'microDST/Nowhere/To/Be/Found'
ApplicationMgr       INFO Application Manager Stopped successfully
Test1               DEBUG Finalize base class GaudiAlgorithm
Test1               DEBUG Tools to release :
Test1               DEBUG Services to release :
Test2               DEBUG Finalize base class GaudiAlgorithm
Test2               DEBUG Tools to release :
Test2               DEBUG Services to release :
Test3               DEBUG Finalize base class GaudiAlgorithm
Test3               DEBUG Tools to release :
Test3               DEBUG Services to release :
Test4               DEBUG Finalize base class GaudiAlgorithm
Test4               DEBUG Tools to release :
Test4               DEBUG Services to release :
EventLoopMgr         INFO Histograms converted successfully according to request.
ToolSvc              INFO Removing all tools created by ToolSvc
ApplicationMgr       INFO Application Manager Finalized successfully
ApplicationMgr       INFO Application Manager Terminated successfully
